…
    ## # A tibble: 1 x 1
    ##         n
    ##     <int>
    ## 1 1384617

``` r
instacart_tidy
```

    ## # A tibble: 1,384,617 x 15
    ##    order_id product_id add_to_cart_ord… reordered user_id eval_set
    ##       <int>      <int>            <int>     <int>   <int> <chr>   
    ##  1        1      49302                1         1  112108 train   
    ##  2        1      11109                2         1  112108 train   
    ##  3        1      10246                3         0  112108 train   
    ##  4        1      49683                4         0  112108 train   
    ##  5        1      43633                5         1  112108 train   
    ##  6        1      13176                6         0  112108 train   
    ##  7        1      47209                7         0  112108 train   
    ##  8        1      22035                8         1  112108 train   
    ##  9       36      39612                1         0   79431 train   
    ## 10       36      19660                2         1   79431 train   
    ## # … with 1,384,607 more rows, and 9 more variables: order_number <int>,
    ## #   order_dow <fct>, order_hour_of_day <int>,
    ## #   days_since_prior_order <int>, product_name <fct>, aisle_id <int>,
    ## #   department_id <int>, aisle <fct>, department <fct>
…
  - include only responses from “Excellent” to “Poor”

<!-- end list -->

``` r
brfss_smart2010_tidy_focus%>%
  ##Selecting only the desired responses.
  filter(response == "Excellent" |response == "Very good" |response == "Good" |response == "Fair"| response == "Poor")
```

    ## # A tibble: 10,625 x 24
    ##     year class topic question response sample_size data_value
    ##    <int> <chr> <chr> <chr>    <chr>          <int>      <dbl>
    ##  1  2010 Heal… Over… How is … Excelle…          94       18.9
    ##  2  2010 Heal… Over… How is … Very go…         148       30  
    ##  3  2010 Heal… Over… How is … Good             208       33.1
    ##  4  2010 Heal… Over… How is … Fair             107       12.5
    ##  5  2010 Heal… Over… How is … Poor              45        5.5
    ##  6  2010 Heal… Over… How is … Excelle…          91       15.6
    ##  7  2010 Heal… Over… How is … Very go…         177       31.3
    ##  8  2010 Heal… Over… How is … Good             224       31.2
    ##  9  2010 Heal… Over… How is … Fair             120       15.5
    ## 10  2010 Heal… Over… How is … Poor              66        6.4
    ## # … with 10,615 more rows, and 17 more variables:
    ## #   confidence_limit_low <dbl>, confidence_limit_high <dbl>,
    ## #   display_order <int>, data_value_unit <chr>, data_value_type <chr>,
    ## #   data_value_footnote_symbol <chr>, data_value_footnote <chr>,
    ## #   data_source <chr>, class_id <chr>, topic_id <chr>, location_id <chr>,
    ## #   question_id <chr>, respid <chr>, state_abbr <chr>,
    ## #   counties_and_cities <chr>, geo_coordinate <chr>,
    ## #   theme_of_intersted <chr>
…
<!-- end list -->

``` r
Mean_state_per_year<-brfss_smart2010_tidy_focus%>%
    filter(response == "Excellent")%>%
  ##NA value will cause the mean function to return a NA
  drop_na(data_value)%>%
  group_by(year,state_abbr)%>%summarise(averages = mean(data_value))%>%
  transmute(
            state = state_abbr,
            averages_data_values = round(averages,digits = 2))
Mean_state_per_year
```

    ## # A tibble: 443 x 3
    ## # Groups:   year [9]
    ##     year state averages_data_values
    ##    <int> <chr>                <dbl>
    ##  1  2002 AK                    27.9
    ##  2  2002 AL                    18.5
    ##  3  2002 AR                    24.1
    ##  4  2002 AZ                    24.1
    ##  5  2002 CA                    22.7
    ##  6  2002 CO                    23.1
    ##  7  2002 CT                    29.1
    ##  8  2002 DC                    29.3
    ##  9  2002 DE                    20.9
    ## 10  2002 FL                    25.7
    ## # … with 433 more rows
…
<!-- end list -->

``` r
summary_accel_by_hour<-accel_data_tidy%>%
  group_by(week,weekend_or_weekday,days_of_week,hour_of_day,day_id)%>%
  summarise(sum_activity_per_hour = sum(activity))
summary_accel_by_hour
```

    ## # A tibble: 875 x 6
    ## # Groups:   week, weekend_or_weekday, days_of_week, hour_of_day [875]
    ##     week weekend_or_weekd… days_of_week hour_of_day day_id sum_activity_pe…
    ##    <dbl> <fct>             <fct>              <dbl>  <dbl>            <dbl>
    ##  1     1 weekday           Monday                 0      2               59
    ##  2     1 weekday           Monday                 1      2               60
    ##  3     1 weekday           Monday                 2      2               60
    ##  4     1 weekday           Monday                 3      2               60
    ##  5     1 weekday           Monday                 4      2               60
    ##  6     1 weekday           Monday                 5      2               60
    ##  7     1 weekday           Monday                 6      2               60
    ##  8     1 weekday           Monday                 7      2               60
    ##  9     1 weekday           Monday                 8      2               60
    ## 10     1 weekday           Monday                 9      2               60
    ## # … with 865 more rows
…
